[
    "Afghanistan",
    "Ägypten",
    "Albanien",
    "Algerien",
    "Andorra",
    "Angola",
    "Antigua und Barbuda",
    "Äquatorialguinea",
    "Argentinien",
    "Armenien",
    "Aserbaidschan",
    "Äthiopien",
    "Australien",
    "Bahamas",
    "Bahrain",
    "Bangladesch",
    "Barbados",
    "Belgien",
    "Belize",
    "Benin",
    "Bhutan",
    "Bolivien",
    "Bosnien und Herzegowina",
    "Botswana",
    "Brasilien",
    "Brunei",
    "Bulgarien",
    "Burkina Faso",
    "Burundi",
    "Chile",
    "Cookinseln",
    "Costa Rica",
    "Dänemark",
    "Demokratische Republik Kongo",
    "Deutschland",
    "Dominica",
    "Dominikanische Republik",
    "Dschibuti",
    "Ecuador",
    "El Salvador",
    "Elfenbeinküste",
    "Eritrea",
    "Estland",
    "Eswatini",
    "Fidschi",
    "Finnland",
    "Föderierte Staaten von Mikronesien",
    "Frankreich",
    "Gabun",
    "Gambia",
    "Georgia",
    "Ghana",
    "Grenada",
    "Griechenland",
    "Guatemala",
    "Guinea-Bissau",
    "Guinea",
    "Guyana",
    "Haiti",
    "Honduras",
    "Indien",
    "Indonesien",
    "Irak",
    "Iran",
    "Irland",
    "Island",
    "Israel",
    "Italien",
    "Jamaika",
    "Japan",
    "Jemen",
    "Jordanien",
    "Kambodscha",
    "Kamerun",
    "Kanada",
    "Kap Verde",
    "Kasachstan",
    "Katar",
    "Kenia",
    "Kirgisistan",
    "Kiribati",
    "Kolumbien",
    "Komoren",
    "Kosovo",
    "Kroatien",
    "Kuba",
    "Kuwait",
    "Laos",
    "Lesotho",
    "Lettland",
    "Libanon",
    "Liberia",
    "Libyen",
    "Liechtenstein",
    "Litauen",
    "Luxemburg",
    "Madagaskar",
    "Malawi",
    "Malaysia",
    "Malediven",
    "Mali",
    "Malta",
    "Marokko",
    "Marshallinseln",
    "Mauretanien",
    "Mauritius",
    "Mexiko",
    "Moldawien",
    "Monaco",
    "Mongolei",
    "Montenegro",
    "Mosambik",
    "Myanmar",
    "Namibia",
    "Nauru",
    "Nepal",
    "Neuseeland",
    "Nicaragua",
    "Niederlande",
    "Niger",
    "Nigeria",
    "Niue",
    "Nordkorea",
    "Nordmazedonien",
    "Norwegen",
    "Oman",
    "Österreich",
    "Osttimor",
    "Pakistan",
    "Palau",
    "Panama",
    "Papua-Neuguinea",
    "Paraguay",
    "Peru",
    "Philippinen",
    "Polen",
    "Portugal",
    "Republik Arzach",
    "Republik China (Taiwan)",
    "Republik Kongo",
    "Republik Zypern",
    "Ruanda",
    "Rumänien",
    "Russland",
    "Salomonen",
    "Sambia",
    "Samoa",
    "San Marino",
    "São Tomé und Príncipe",
    "Saudi Arabien",
    "Schweden",
    "Schweiz",
    "Senegal",
    "Serbien",
    "Seychellen",
    "Sierra Leone",
    "Simbabwe",
    "Singapur",
    "Slowakei",
    "Slowenien",
    "Somalia",
    "Spanien",
    "Sri Lanka",
    "St. Kitts und Nevis",
    "St. Lucia",
    "St. Vincent und die Grenadinen",
    "Staat Palästina",
    "Südafrika",
    "Sudan",
    "Südkorea",
    "Südossetien",
    "Südsudan",
    "Suriname",
    "Syrien",
    "Tadschikistan",
    "Tansania",
    "Thailand",
    "Togo",
    "Tonga",
    "Transnistrien",
    "Trinidad und Tobago",
    "Tschad",
    "Tschechien",
    "Tunesien",
    "Türkei",
    "Turkmenistan",
    "Tuvalu",
    "Uganda",
    "Ukraine",
    "Ungarn",
    "Uruguay",
    "Usbekistan",
    "Vanuatu",
    "Vatikanstadt",
    "Venezuela",
    "Vereinigte Arabische Emirate",
    "Vereinigten Staaten",
    "Vereinigtes Königreich",
    "Vietnam",
    "Volksrepublik China",
    "Weißrussland",
    "Zentralafrikanische Republik"
]