[
    "Άγιος Βικέντιος και Γρεναδίνες",
    "Άγιος Μαρίνος",
    "Άγιος Χριστόφορος και Νέβις",
    "Αίγυπτος",
    "Αγία Λουκία",
    "Αγκόλα",
    "Αζερμπαιτζάν",
    "Αιθιοπία",
    "Ακτή Ελεφαντοστού",
    "Αλβανία",
    "Αλγερία",
    "Ανατολικό Τιμόρ",
    "Ανδόρρα",
    "Αντίγκουα και Μπαρμπούντα",
    "Αργεντινή",
    "Αρμενία",
    "Αυστρία",
    "Αυστραλία",
    "Αφγανιστάν",
    "Αϊτή",
    "Βέλγιο",
    "Βανουάτου",
    "Βατικανό",
    "Βενεζουέλα",
    "Βιετνάμ",
    "Βολιβία",
    "Βοσνία και Ερζεγοβίνη",
    "Βουλγαρία",
    "Βραζιλία",
    "Βόρεια Κορέα",
    "Βόρεια Μακεδονία",
    "Γαλλία",
    "Γερμανία",
    "Γεωργία",
    "Γκάμπια",
    "Γκάνα",
    "Γκαμπόν",
    "Γουατεμάλα",
    "Γουιάνα",
    "Γουινέα",
    "Γουινέα-Μπισσάου",
    "Γρενάδα",
    "Δανία",
    "Δημοκρατία Κεντρικής Αφρικής",
    "Δημοκρατία του Κονγκό",
    "Δομινίκα",
    "Δομινικανή Δημοκρατία",
    "Εκουαδόρ",
    "Ελ Σαλβαδόρ",
    "Ελβετία",
    "Ελλάδα",
    "Ερυθραία",
    "Εσθονία",
    "Εσουατίνι",
    "Ζάμπια",
    "Ζιμπάμπουε",
    "Ηνωμένα Αραβικά Εμιράτα",
    "Ηνωμένες Πολιτείες",
    "Ηνωμένο Βασίλειο",
    "Ιαπωνία",
    "Ινδία",
    "Ινδονησία",
    "Ιορδανία",
    "Ιράκ",
    "Ιράν",
    "Ιρλανδία",
    "Ισημερινή Γουινέα",
    "Ισλανδία",
    "Ισπανία",
    "Ισραήλ",
    "Ιταλία",
    "Κένυα",
    "Κίνα",
    "Καζακστάν",
    "Καμερούν",
    "Καμπότζη",
    "Καναδάς",
    "Κατάρ",
    "Κιργιστάν",
    "Κιριμπάτι",
    "Κολομβία",
    "Κομόρες",
    "Κουβέιτ",
    "Κούβα",
    "Κροατία",
    "Κόστα Ρίκα",
    "Κύπρος",
    "Λάος",
    "Λίβανος",
    "Λαϊκή Δημοκρατία του Κονγκό",
    "Λεσόθο",
    "Λετονία",
    "Λευκορωσία",
    "Λιβερία",
    "Λιβύη",
    "Λιθουανία",
    "Λιχτενστάιν",
    "Λουξεμβούργο",
    "Μάλι",
    "Μάλτα",
    "Μαδαγασκάρη",
    "Μαλάουι",
    "Μαλαισία",
    "Μαλδίβες",
    "Μαρόκο",
    "Μαυρίκιος",
    "Μαυριτανία",
    "Μαυροβούνιο",
    "Μεξικό",
    "Μιανμάρ",
    "Μογγολία",
    "Μοζαμβίκη",
    "Μολδαβία",
    "Μονακό",
    "Μπανγκλαντές",
    "Μπαρμπαντός",
    "Μπαχάμες",
    "Μπαχρέιν",
    "Μπελίζε",
    "Μπενίν",
    "Μποτσουάνα",
    "Μπουρκίνα Φάσο",
    "Μπουρούντι",
    "Μπουτάν",
    "Μπρούνεϊ",
    "Νέα Ζηλανδία",
    "Νήσοι Σολομώντα",
    "Νίγηρας",
    "Ναμίμπια",
    "Ναουρού",
    "Νεπάλ",
    "Νησιά Μάρσαλ",
    "Νιγηρία",
    "Νικαράγουα",
    "Νορβηγία",
    "Νότια Αφρική",
    "Νότια Κορέα",
    "Νότιο Σουδάν",
    "Ολλανδία",
    "Ομάν",
    "Ομόσπονδες Πολιτείες της Μικρονησίας",
    "Ονδούρα",
    "Ουγγαρία",
    "Ουγκάντα",
    "Ουζμπεκιστάν",
    "Ουκρανία",
    "Ουρουγουάη",
    "Πάναμας",
    "Πακιστάν",
    "Παλάου",
    "Παλαιστίνη",
    "Παπουά Νέα Γουινέα",
    "Παραγουάη",
    "Περού",
    "Πολωνία",
    "Πορτογαλία",
    "Πράσινο Ακρωτήριο",
    "Ρουάντα",
    "Ρουμανία",
    "Ρωσία",
    "Σάο Τομέ και Πρίνσιπε",
    "Σαμόα",
    "Σαουδική Αραβία",
    "Σενεγάλη",
    "Σερβία",
    "Σεϋχέλλες",
    "Σιέρρα Λεόνε",
    "Σιγκαπούρη",
    "Σλοβακία",
    "Σλοβενία",
    "Σομαλία",
    "Σουδάν",
    "Σουηδία",
    "Σουρινάμ",
    "Σρι Λάνκα",
    "Συρία",
    "Τανζανία",
    "Τατζικιστάν",
    "Ταϊλάνδη",
    "Τζαμάικα",
    "Τζιμπουτί",
    "Τογκα",
    "Τουβαλού",
    "Τουρκία",
    "Τουρκμενιστάν",
    "Τρινιντάντ και Τομπάγκο",
    "Τσάντ",
    "Τσεχική Δημοκρατία",
    "Τυνησία",
    "Τόγκο",
    "Υεμένη",
    "Φίτζι",
    "Φιλιππίνες",
    "Φινλανδία",
    "Χιλή"
]
